{
	"additionalNodes": [ {
		"children": [],
		"id": "Hpl3PkwHPfLIbNuxa5eEFMpKZk1zmdMV",
		"nodeType": "luaCommand",
		"parameters": [ {
			"name": "condition",
			"value": "false"
		}, {
			"name": "scriptName",
			"value": "waitUntil"
		} ],
		"scriptName": "waitUntil"
	} ],
	"additionalParameters": {
		"root": {
			"height": 128,
			"width": 216
		}
	},
	"inputs": [],
	"outputs": [],
	"properties": {
		"2S3JCRjCwft78UDvAZXK2tU5tHWXGCEJ": {
			"height": 90,
			"title": "luaCondition",
			"width": 194,
			"x": 1406,
			"y": 379
		},
		"45komPhaRThvIOEqxojzSaLFQYdcDcq8": {
			"height": 94,
			"title": "storeTransportsIds",
			"width": 357,
			"x": 883,
			"y": -78
		},
		"4CbxGhaI1Ob3h21RYtVUJFK8T8oou4NK": {
			"height": 60,
			"title": "andGameAndWait",
			"width": 198,
			"x": 1709,
			"y": 430
		},
		"4nHlMdSJHCSajzQZsv7m5R9AqTHAJkEU": {
			"height": 72,
			"title": "waitForeverMissionWon",
			"width": 233,
			"x": 1960,
			"y": 476
		},
		"5VoreDPDUXQDJ8RmPOxyHNL1z0S4jSz7": {
			"height": 60,
			"title": "sequence",
			"width": 143,
			"x": 466,
			"y": 778
		},
		"6xVVU5wTMyeFTdVdjKK1pcsHZtX6ow0M": {
			"height": 94,
			"title": "storeEnemyPositions",
			"width": 505,
			"x": 768,
			"y": 381
		},
		"ASXst9WyM50VVTUZg0qCTd7BAJr2i7Qm": {
			"height": 235,
			"title": "saveUnits",
			"width": 313,
			"x": 726,
			"y": 778
		},
		"CyVxj3jvqnakwlGzSBnfob3rCpwVfNWH": {
			"height": 94,
			"title": "saveMissionInfo",
			"width": 303,
			"x": 516,
			"y": -134
		},
		"FnFJuJTMyPI9EJ6MVuOd0Yz2fhfAg5sf": {
			"height": 54,
			"title": "success",
			"width": 132,
			"x": 1711,
			"y": 369
		},
		"Hpl3PkwHPfLIbNuxa5eEFMpKZk1zmdMV": {
			"height": 72,
			"title": "waitUntil",
			"width": 150,
			"x": 1416,
			"y": 2097
		},
		"N5SWyspdrlU4EqQUDuVWuPYYkMzeihk1": {
			"height": 94,
			"title": "storeReconIds",
			"width": 336,
			"x": 884,
			"y": 15
		},
		"TKrge4UfoH45oTUbqa9767Uiw6NezNsA": {
			"height": 94,
			"title": "storeAAThreatGrid",
			"width": 550,
			"x": 755,
			"y": 623
		},
		"UHPR3gNPZIn1gd6jAkUBkXep4AJcGpIJ": {
			"height": 65,
			"title": "successForIgnoredUnits (buildings, radars)",
			"width": 354,
			"x": 890,
			"y": 107
		},
		"XTylBUrSShxIETYCJSL6q1wVnlQjNQyo": {
			"height": 94,
			"title": "aggregateEnemyUnits",
			"width": 545,
			"x": 732,
			"y": 504
		},
		"YzpZrIL9o0ZSwnCBIYlKPwzA3OtIJPrk": {
			"height": 94,
			"title": "storeFightingUnits",
			"width": 336,
			"x": 1421,
			"y": 159
		},
		"c6jInncf4AYZW7DUq1IQjAJJYuLiCznb": {
			"height": 60,
			"title": "processStrandedUnits",
			"width": 222,
			"x": 1062,
			"y": 229
		},
		"ghznwiduDwQKw5WytU3GHq3RmnpHgjnE": {
			"height": 94,
			"title": "aggregateStrandedUnits",
			"width": 557,
			"x": 1388,
			"y": 658
		},
		"hNCFDLWojmt9cHf8jdV27vhabQZQ7bqr": {
			"height": 54,
			"title": "processEnemyUnits",
			"width": 208,
			"x": 466,
			"y": 411
		},
		"jFbeYDD8xX9FkDe7tWMlc0gR0577uHu3": {
			"height": 54,
			"title": "gameOver",
			"width": 309,
			"x": 1951,
			"y": 399
		},
		"k9esq3WapEo241L1BM03975aA94Baxem": {
			"height": 101,
			"title": "filterStrandedUnits",
			"width": 680,
			"x": 1420,
			"y": 263
		},
		"qltEZUpuLeZHK6YSanCnH3hwhsh6m0oW": {
			"height": 60,
			"title": "sequence",
			"width": 143,
			"x": 241,
			"y": 24
		},
		"uDbqRed2AnNeb7qaAb46ahkm7OEjFNtB": {
			"height": 94,
			"title": "storeStrandedUnitsLocs",
			"width": 459,
			"x": 1395,
			"y": 567
		},
		"x8lfUvgZi0f2BrTd3uF0KzrQ0CnS0HfE": {
			"height": 70,
			"title": "categorizeAndProcessMyUnits",
			"width": 274,
			"x": 517,
			"y": -21
		}
	},
	"roles": [ {
		"categories": [ "nota_sergio_first_project.Atlas" ],
		"name": "AirTransports"
	}, {
		"categories": [ "nota_sergio_first_project.Minion" ],
		"name": "AirRecon"
	}, {
		"categories": [ "nota_sergio_first_project.Towers" ],
		"name": "Ignore"
	}, {
		"categories": [],
		"name": "Rest"
	} ],
	"root": {
		"children": [ {
			"children": [],
			"id": "CyVxj3jvqnakwlGzSBnfob3rCpwVfNWH",
			"nodeType": "luaCommand",
			"parameters": [ {
				"name": "var",
				"value": "safeArea"
			}, {
				"name": "value",
				"value": "core.MissionInfo().safeArea"
			}, {
				"name": "scriptName",
				"value": "store"
			} ],
			"scriptName": "store"
		}, {
			"children": [ {
				"children": [],
				"id": "45komPhaRThvIOEqxojzSaLFQYdcDcq8",
				"nodeType": "luaCommand",
				"parameters": [ {
					"name": "var",
					"value": "transports"
				}, {
					"name": "value",
					"value": "nota_sergio_first_project.MapUnitIDs()"
				}, {
					"name": "scriptName",
					"value": "store"
				} ],
				"scriptName": "store"
			}, {
				"children": [],
				"id": "N5SWyspdrlU4EqQUDuVWuPYYkMzeihk1",
				"nodeType": "luaCommand",
				"parameters": [ {
					"name": "var",
					"value": "recons"
				}, {
					"name": "value",
					"value": "nota_sergio_first_project.MapUnitIDs()"
				}, {
					"name": "scriptName",
					"value": "store"
				} ],
				"scriptName": "store"
			}, {
				"children": [],
				"id": "UHPR3gNPZIn1gd6jAkUBkXep4AJcGpIJ",
				"nodeType": "success",
				"parameters": []
			}, {
				"children": [ {
					"children": [],
					"id": "YzpZrIL9o0ZSwnCBIYlKPwzA3OtIJPrk",
					"nodeType": "luaCommand",
					"parameters": [ {
						"name": "var",
						"value": "fighitngUnits"
					}, {
						"name": "value",
						"value": "nota_sergio_first_project.MapUnitIDs()"
					}, {
						"name": "scriptName",
						"value": "store"
					} ],
					"scriptName": "store"
				}, {
					"children": [],
					"id": "k9esq3WapEo241L1BM03975aA94Baxem",
					"nodeType": "luaCommand",
					"parameters": [ {
						"name": "var",
						"value": "unitsToSave"
					}, {
						"name": "value",
						"value": "nota_sergio_first_project.FindUnitsInArea(fighitngUnits, safeArea.center, safeArea.radius)"
					}, {
						"name": "scriptName",
						"value": "store"
					} ],
					"scriptName": "store"
				}, {
					"children": [ {
						"children": [],
						"id": "FnFJuJTMyPI9EJ6MVuOd0Yz2fhfAg5sf",
						"nodeType": "success",
						"parameters": []
					}, {
						"children": [ {
							"children": [],
							"id": "jFbeYDD8xX9FkDe7tWMlc0gR0577uHu3",
							"nodeType": "luaCommand",
							"parameters": [ {
								"name": "scriptName",
								"value": "nota_sergio_first_project.gameOver"
							} ],
							"scriptName": "nota_sergio_first_project.gameOver"
						}, {
							"children": [],
							"id": "4nHlMdSJHCSajzQZsv7m5R9AqTHAJkEU",
							"nodeType": "luaCommand",
							"parameters": [ {
								"name": "condition",
								"value": "false"
							}, {
								"name": "scriptName",
								"value": "waitUntil"
							} ],
							"scriptName": "waitUntil"
						} ],
						"id": "4CbxGhaI1Ob3h21RYtVUJFK8T8oou4NK",
						"nodeType": "sequence",
						"parameters": []
					} ],
					"id": "2S3JCRjCwft78UDvAZXK2tU5tHWXGCEJ",
					"nodeType": "luaCondition",
					"parameters": [ {
						"name": "expression",
						"value": "#unitsToSave > 0"
					}, {
						"name": "repeat",
						"value": "false"
					} ]
				}, {
					"children": [],
					"id": "uDbqRed2AnNeb7qaAb46ahkm7OEjFNtB",
					"nodeType": "luaCommand",
					"parameters": [ {
						"name": "var",
						"value": "unitsToSaveLocs"
					}, {
						"name": "value",
						"value": "nota_sergio_first_project.GetUnitLocations(unitsToSave)"
					}, {
						"name": "scriptName",
						"value": "store"
					} ],
					"scriptName": "store"
				}, {
					"children": [],
					"id": "ghznwiduDwQKw5WytU3GHq3RmnpHgjnE",
					"nodeType": "luaCommand",
					"parameters": [ {
						"name": "var",
						"value": "saveLocs"
					}, {
						"name": "value",
						"value": "nota_sergio_first_project.DetectGroupOfUnits(unitsToSaveLocs, 512, true)"
					}, {
						"name": "scriptName",
						"value": "store"
					} ],
					"scriptName": "store"
				} ],
				"id": "c6jInncf4AYZW7DUq1IQjAJJYuLiCznb",
				"nodeType": "sequence",
				"parameters": []
			} ],
			"id": "x8lfUvgZi0f2BrTd3uF0KzrQ0CnS0HfE",
			"nodeType": "roleSplit",
			"parameters": [ {
				"name": "mode",
				"value": "all-success"
			} ]
		}, {
			"children": [ {
				"children": [],
				"id": "6xVVU5wTMyeFTdVdjKK1pcsHZtX6ow0M",
				"nodeType": "luaCommand",
				"parameters": [ {
					"name": "var",
					"value": "enemyPositions"
				}, {
					"name": "value",
					"value": "nota_sergio_first_project.GetUnitLocations(core.EnemyUnits())"
				}, {
					"name": "scriptName",
					"value": "store"
				} ],
				"scriptName": "store"
			}, {
				"children": [],
				"id": "XTylBUrSShxIETYCJSL6q1wVnlQjNQyo",
				"nodeType": "luaCommand",
				"parameters": [ {
					"name": "var",
					"value": "enemiesAll"
				}, {
					"name": "value",
					"value": "nota_sergio_first_project.DetectGroupOfUnits(enemyPositions, 64, false)"
				}, {
					"name": "scriptName",
					"value": "store"
				} ],
				"scriptName": "store"
			}, {
				"children": [],
				"id": "TKrge4UfoH45oTUbqa9767Uiw6NezNsA",
				"nodeType": "luaCommand",
				"parameters": [ {
					"name": "var",
					"value": "AAThreatGrid"
				}, {
					"name": "value",
					"value": "nota_sergio_first_project.GetAAThreatGrid(enemiesAll, 50, 128)"
				}, {
					"name": "scriptName",
					"value": "store"
				} ],
				"scriptName": "store"
			} ],
			"id": "hNCFDLWojmt9cHf8jdV27vhabQZQ7bqr",
			"nodeType": "sequence",
			"parameters": []
		}, {
			"children": [ {
				"children": [],
				"id": "ASXst9WyM50VVTUZg0qCTd7BAJr2i7Qm",
				"nodeType": "reference",
				"parameters": [ {
					"name": "behaviourName",
					"value": "nota_sergio_first_project.rescueUnits"
				} ],
				"referenceInputs": [ {
					"name": "threatGrid",
					"value": "AAThreatGrid"
				}, {
					"name": "strandedMeetingPoint",
					"value": "saveLocs[1][1]"
				}, {
					"name": "strandedUIds",
					"value": "saveLocs[1][2]"
				}, {
					"name": "safeArea",
					"value": "safeArea"
				}, {
					"name": "transports",
					"value": "transports"
				} ],
				"referenceOutputs": []
			} ],
			"id": "5VoreDPDUXQDJ8RmPOxyHNL1z0S4jSz7",
			"nodeType": "sequence",
			"parameters": []
		} ],
		"id": "qltEZUpuLeZHK6YSanCnH3hwhsh6m0oW",
		"nodeType": "sequence",
		"parameters": []
	}
}